threshold,precision,recall,fMeasure,allPositive,truePositive,perfectCompleteClusterNo
0.1,0.9379600420609885,0.8228782287822878,0.8766584766584766,951,892,1222
0.2,0.9396186440677966,0.8182656826568265,0.8747534516765286,944,887,1229
0.3,0.9443231441048034,0.7979704797047971,0.865,916,865,1257