threshold,precision,recall,fMeasure,allPositive,truePositive,perfectCompleteClusterNo
0.1,0.939873417721519,0.8219557195571956,0.8769685039370079,948,891,1225
0.2,0.944739638682253,0.8201107011070111,0.8780246913580247,941,889,1232
0.3,0.9568106312292359,0.7970479704797048,0.8696527428283845,903,864,1270