threshold,precision,recall,fMeasure,allPositive,truePositive,perfectCompleteClusterNo
0.1,0.6144927536231884,0.19557195571955718,0.29671098670398877,345,212,1828
0.2,0.6435643564356436,0.11992619926199262,0.20217729393468117,202,130,1971
0.3,0.6551724137931034,0.052583025830258305,0.09735269000853972,87,57,2086