www.priceme.co.nz//1691,ENTITY#101
www.priceme.co.nz//2004,ENTITY#101
www.priceme.co.nz//2356,ENTITY#101
www.priceme.co.nz//1833,ENTITY#16
www.priceme.co.nz//1746,ENTITY#16
www.priceme.co.nz//2216,ENTITY#16
www.priceme.co.nz//2027,ENTITY#18
www.priceme.co.nz//2333,ENTITY#18
www.priceme.co.nz//1793,ENTITY#18
www.priceme.co.nz//1934,ENTITY#18
www.priceme.co.nz//2162,ENTITY#18
www.priceme.co.nz//2278,ENTITY#18
www.priceme.co.nz//1731,ENTITY#180
www.priceme.co.nz//2261,ENTITY#180
www.priceme.co.nz//1865,ENTITY#19
www.priceme.co.nz//2342,ENTITY#19
www.priceme.co.nz//1945,ENTITY#19
www.priceme.co.nz//1829,ENTITY#19
www.priceme.co.nz//2110,ENTITY#19
www.priceme.co.nz//85,ENTITY#21
www.priceme.co.nz//2181,ENTITY#21
www.priceme.co.nz//2056,ENTITY#21
www.priceme.co.nz//2403,ENTITY#21
www.priceme.co.nz//1800,ENTITY#21
www.priceme.co.nz//2007,ENTITY#21
www.priceme.co.nz//2171,ENTITY#23
www.priceme.co.nz//25,ENTITY#23
www.priceme.co.nz//2227,ENTITY#23
www.priceme.co.nz//1804,ENTITY#23
www.priceme.co.nz//2272,ENTITY#23
www.priceme.co.nz//2059,ENTITY#23
www.priceme.co.nz//2147,ENTITY#23
www.priceme.co.nz//2208,ENTITY#23
www.priceme.co.nz//2343,ENTITY#23
www.priceme.co.nz//2319,ENTITY#23
www.priceme.co.nz//1786,ENTITY#23
www.priceme.co.nz//2117,ENTITY#24
www.priceme.co.nz//2048,ENTITY#24
www.priceme.co.nz//2367,ENTITY#24
www.priceme.co.nz//2242,ENTITY#24
www.priceme.co.nz//1825,ENTITY#29
www.priceme.co.nz//1734,ENTITY#29
www.priceme.co.nz//1876,ENTITY#31
www.priceme.co.nz//2125,ENTITY#31
www.priceme.co.nz//1869,ENTITY#36
www.priceme.co.nz//2145,ENTITY#36
www.priceme.co.nz//2373,ENTITY#36
www.priceme.co.nz//2161,ENTITY#36
www.priceme.co.nz//2317,ENTITY#36
www.priceme.co.nz//2265,ENTITY#36
www.priceme.co.nz//2021,ENTITY#41
www.priceme.co.nz//2134,ENTITY#41
www.priceme.co.nz//1946,ENTITY#41
www.priceme.co.nz//2350,ENTITY#41
www.priceme.co.nz//2262,ENTITY#41
www.priceme.co.nz//1798,ENTITY#41
www.priceme.co.nz//2062,ENTITY#41
www.priceme.co.nz//1778,ENTITY#44
www.priceme.co.nz//2082,ENTITY#44
www.priceme.co.nz//2043,ENTITY#44
www.priceme.co.nz//1670,ENTITY#44
www.priceme.co.nz//2018,ENTITY#44
www.priceme.co.nz//2202,ENTITY#44
www.priceme.co.nz//2172,ENTITY#44
www.priceme.co.nz//2249,ENTITY#44
www.priceme.co.nz//2073,ENTITY#44
www.priceme.co.nz//2192,ENTITY#44
www.priceme.co.nz//1809,ENTITY#51
www.priceme.co.nz//2325,ENTITY#51
www.priceme.co.nz//1885,ENTITY#53
www.priceme.co.nz//2203,ENTITY#53
www.priceme.co.nz//2058,ENTITY#53
www.priceme.co.nz//1699,ENTITY#53
www.priceme.co.nz//1787,ENTITY#55
www.priceme.co.nz//2002,ENTITY#55
www.priceme.co.nz//62,ENTITY#55
www.priceme.co.nz//1847,ENTITY#57
www.priceme.co.nz//2306,ENTITY#57
www.priceme.co.nz//1967,ENTITY#570
www.priceme.co.nz//2104,ENTITY#570
www.priceme.co.nz//2194,ENTITY#58
www.priceme.co.nz//2160,ENTITY#58
www.priceme.co.nz//2035,ENTITY#58
www.priceme.co.nz//1797,ENTITY#58
www.priceme.co.nz//1927,ENTITY#6
www.priceme.co.nz//1817,ENTITY#6
www.priceme.co.nz//2196,ENTITY#6
www.priceme.co.nz//1727,ENTITY#6
www.priceme.co.nz//1735,ENTITY#6
www.priceme.co.nz//2220,ENTITY#6
www.priceme.co.nz//1802,ENTITY#61
www.priceme.co.nz//39,ENTITY#61
www.priceme.co.nz//67,ENTITY#61
www.priceme.co.nz//84,ENTITY#61
www.priceme.co.nz//1925,ENTITY#62
www.priceme.co.nz//37,ENTITY#62
www.priceme.co.nz//1998,ENTITY#62
www.priceme.co.nz//2232,ENTITY#62
www.priceme.co.nz//2276,ENTITY#62
www.priceme.co.nz//48,ENTITY#66
www.priceme.co.nz//2349,ENTITY#66
www.priceme.co.nz//2246,ENTITY#66
www.priceme.co.nz//1914,ENTITY#66
www.priceme.co.nz//5,ENTITY#66
www.priceme.co.nz//2,ENTITY#66
www.priceme.co.nz//1911,ENTITY#7
www.priceme.co.nz//2223,ENTITY#7
www.priceme.co.nz//2011,ENTITY#7
www.priceme.co.nz//1995,ENTITY#7
www.priceme.co.nz//1974,ENTITY#7
www.priceme.co.nz//1958,ENTITY#7
www.priceme.co.nz//2129,ENTITY#72
www.priceme.co.nz//1712,ENTITY#72
www.priceme.co.nz//41,ENTITY#75
www.priceme.co.nz//2396,ENTITY#75
www.priceme.co.nz//1985,ENTITY#75
www.priceme.co.nz//2244,ENTITY#75
www.priceme.co.nz//73,ENTITY#75
www.priceme.co.nz//1675,ENTITY#75
www.priceme.co.nz//2081,ENTITY#75
www.priceme.co.nz//1980,ENTITY#75
www.priceme.co.nz//2064,ENTITY#75
www.priceme.co.nz//2188,ENTITY#75
www.priceme.co.nz//2136,ENTITY#75
www.priceme.co.nz//1950,ENTITY#76
www.priceme.co.nz//21,ENTITY#76
www.priceme.co.nz//2300,ENTITY#76
www.priceme.co.nz//2369,ENTITY#76
www.priceme.co.nz//1938,ENTITY#76
www.priceme.co.nz//2252,ENTITY#76
www.priceme.co.nz//2093,ENTITY#77
www.priceme.co.nz//2186,ENTITY#77
www.priceme.co.nz//2354,ENTITY#77
www.priceme.co.nz//2308,ENTITY#77
www.priceme.co.nz//2294,ENTITY#79
www.priceme.co.nz//2393,ENTITY#79
www.priceme.co.nz//2051,ENTITY#79
www.priceme.co.nz//2185,ENTITY#79
www.priceme.co.nz//2382,ENTITY#8
www.priceme.co.nz//2153,ENTITY#8
www.priceme.co.nz//2352,ENTITY#8
www.priceme.co.nz//2135,ENTITY#96
www.priceme.co.nz//1718,ENTITY#96
www.priceme.co.nz//2141,ENTITY#96
www.priceme.co.nz//2407,ENTITY#96
www.priceme.co.nz//1714,ENTITY#96
www.priceme.co.nz//2057,ENTITY#96
