threshold,precision,recall,fMeasure,allPositive,truePositive,perfectCompleteClusterNo
0.1,0.8393063583815029,0.6697416974169742,0.7449974345818369,865,726,1308
0.2,0.8625592417061612,0.6715867158671587,0.7551867219917013,844,728,1329
0.3,0.8748370273794003,0.6190036900369004,0.7250135062128579,767,671,1406