threshold,precision,recall,fMeasure,allPositive,truePositive,perfectCompleteClusterNo
0.0,0.39104477611940297,0.10069177555726365,0.16014669926650366,335,131,4254
0.1,0.3880597014925373,0.09992313604919292,0.15892420537897312,335,130,4254
0.2,0.39104477611940297,0.10069177555726365,0.16014669926650366,335,131,4254
0.30000000000000004,0.3940298507462687,0.10146041506533436,0.16136919315403422,335,132,4254
0.4,0.39104477611940297,0.10069177555726365,0.16014669926650366,335,131,4254
0.5,0.39104477611940297,0.10069177555726365,0.16014669926650366,335,131,4254
0.6,0.3940298507462687,0.10146041506533436,0.16136919315403422,335,132,4254