threshold,precision,recall,fMeasure,allPositive,truePositive,perfectCompleteClusterNo
0.0,1.2956298714109828E-4,0.9969254419677172,2.59092301982166E-4,10010575,1297,115
0.05,1.4043884357650458E-4,0.9315910837817064,2.8083535077540216E-4,8630091,1212,398
0.1,2.5389544979901533E-4,0.6133743274404304,5.075807955088641E-4,3143026,798,1541
0.15000000000000002,0.0010149722530312646,0.4142966948501153,0.002024983563445102,531049,539,2482
0.2,0.007558870019859765,0.28670253651037664,0.014729401544020375,49346,373,3006
0.25,0.011017525948613239,0.19907763259031513,0.020879519529203115,23508,259,3409
0.3,0.010189149639585931,0.1445042275172944,0.019036046982584043,18451,188,3671
0.35,0.008247296719408638,0.1037663335895465,0.01528013582342954,16369,135,3907
0.39999999999999997,0.00626017278076875,0.07686395080707148,0.011577424023154849,15974,100,4033
0.44999999999999996,0.0044281376518218625,0.053804765564950036,0.008182827751475833,15808,70,4116
0.49999999999999994,0.0035007319712303483,0.042275172943889314,0.0064660239830707745,15711,55,4162
0.5499999999999999,0.002682163611980331,0.03228285933897002,0.004952830188679246,15659,42,4200
0.6,0.002304147465437788,0.027671022290545733,0.004254062038404727,15624,36,4223
0.65,0.001924433895695683,0.023059185242121444,0.0035523978685612786,15589,30,4241
0.7000000000000001,0.0016050333846944016,0.01921598770176787,0.002962611838596907,15576,25,4252
0.7500000000000001,0.001221786380297087,0.014604150653343582,0.0022549252314265373,15551,19,4263
0.8000000000000002,9.017132551848512E-4,0.010760953112990008,0.001663992393177631,15526,14,4280
0.8500000000000002,7.088085572524003E-4,0.008455034588777863,0.0013079667063020215,15519,11,4287
0.9000000000000002,5.800837898807605E-4,0.006917755572636433,0.0010704091341579448,15515,9,4291
0.9500000000000003,5.158960469465403E-4,0.006149116064565719,9.519276534983341E-4,15507,8,4299