threshold,precision,recall,fMeasure,allPositive,truePositive,perfectCompleteClusterNo
0.05,0.23974082073434125,0.1706379707916987,0.19937135159407277,926,222,3663
0.1,0.29545454545454547,0.16986933128362797,0.21571498291849683,748,221,3841
0.15000000000000002,0.3264,0.15680245964642583,0.21183800623052962,625,204,3964
0.2,0.34124087591240876,0.14373558800922367,0.20227149810708495,548,187,4041
0.25,0.3580508474576271,0.1299000768639508,0.19063733784545966,472,169,4117
0.3,0.3783783783783784,0.11837048424289008,0.18032786885245902,407,154,4182
0.35,0.3965014577259475,0.10453497309761722,0.1654501216545012,343,136,4246
0.39999999999999997,0.40213523131672596,0.08685626441199078,0.14285714285714285,281,113,4308
0.44999999999999996,0.40476190476190477,0.06533435818601076,0.11250827266710788,210,85,4379
0.5,0.40789473684210525,0.04765564950038432,0.08534067446662078,152,62,4437
0.55,0.42342342342342343,0.0361260568793236,0.06657223796033995,111,47,4478
0.6000000000000001,0.38372093023255816,0.02536510376633359,0.047584715212689255,86,33,4503
0.6500000000000001,0.45454545454545453,0.023059185242121444,0.04389173372348208,66,30,4523
0.7000000000000002,0.4642857142857143,0.019984627209838585,0.038319823139277814,56,26,4533
0.7500000000000002,0.2926829268292683,0.009223674096848577,0.017883755588673618,41,12,4548
0.8000000000000003,0.34375,0.008455034588777863,0.016504126031507877,32,11,4557
0.8500000000000003,0.28,0.005380476556495004,0.010558069381598794,25,7,4564
0.9000000000000004,0.25,0.003843197540353574,0.00757002271006813,20,5,4569
0.9500000000000004,0.36363636363636365,0.0030745580322828594,0.006097560975609756,11,4,4578