threshold,precision,recall,fMeasure,allPositive,truePositive,perfectCompleteClusterNo
0.1,0.8604651162790697,0.6826568265682657,0.7613168724279835,860,740,1313
0.2,0.8544152744630071,0.6605166051660517,0.7450572320499481,838,716,1335
0.3,0.8663171690694627,0.6097785977859779,0.7157552788305361,763,661,1410