threshold,precision,recall,fMeasure,allPositive,truePositive,perfectCompleteClusterNo
0.1,0.5380710659898477,0.09778597785977859,0.16549570647931303,197,106,1976
0.2,0.5532994923857868,0.10055350553505535,0.17017954722872755,197,109,1976
0.3,0.5583756345177665,0.1014760147601476,0.17174082747853242,197,110,1976