threshold,precision,recall,fMeasure,allPositive,truePositive,perfectCompleteClusterNo
0.1,0.8894849785407726,0.764760147601476,0.822420634920635,932,829,1241
0.2,0.8928176795580111,0.7453874538745388,0.8124685771744595,905,808,1268
0.3,0.9218950064020487,0.6642066420664207,0.7721179624664879,781,720,1392