threshold,precision,recall,fMeasure,allPositive,truePositive,perfectCompleteClusterNo
0.1,0.6933638443935927,0.279520295202952,0.3984220907297831,437,303,1736
0.2,0.7390029325513197,0.23247232472324722,0.35368421052631577,341,252,1832
0.3,0.7837837837837838,0.16051660516605165,0.2664624808575804,222,174,1951