threshold,precision,recall,fMeasure,allPositive,truePositive,perfectCompleteClusterNo
0.1,0.6116504854368932,0.23247232472324722,0.3368983957219251,412,252,1761
0.2,0.6756756756756757,0.18450184501845018,0.2898550724637681,296,200,1877
0.3,0.7828947368421053,0.10977859778597786,0.1925566343042071,152,119,2021