threshold,precision,recall,fMeasure,allPositive,truePositive,perfectCompleteClusterNo
0.1,0.8473193473193473,0.6706642066420664,0.748712667353244,858,727,1315
0.2,0.8722627737226277,0.6614391143911439,0.7523609653725079,822,717,1351
0.3,0.8844566712517193,0.5931734317343174,0.7101049144119271,727,643,1446