threshold,precision,recall,fMeasure,allPositive,truePositive,perfectCompleteClusterNo
0.1,0.8322510822510822,0.709409594095941,0.7659362549800798,924,769,1249
0.2,0.834983498349835,0.7001845018450185,0.7616658304064224,909,759,1264
0.3,0.840047393364929,0.6540590405904059,0.7354771784232366,844,709,1329