threshold,precision,recall,fMeasure,allPositive,truePositive,perfectCompleteClusterNo
0.1,0.7675194660734149,0.6365313653136532,0.6959152798789713,899,690,1274
0.2,0.7539503386004515,0.6162361623616236,0.6781725888324873,886,668,1287
0.3,0.7952662721893491,0.6199261992619927,0.6967340590979783,845,672,1328