threshold,precision,recall,fMeasure,allPositive,truePositive,perfectCompleteClusterNo
0.1,0.9003215434083601,0.7749077490774908,0.8329201784828955,933,840,1240
0.2,0.9015317286652079,0.7601476014760148,0.8248248248248249,914,824,1259
0.3,0.9093078758949881,0.7029520295202952,0.7929240374609782,838,762,1335