threshold,precision,recall,fMeasure,allPositive,truePositive,perfectCompleteClusterNo
0.1,0.8368055555555556,0.6669741697416974,0.742299794661191,864,723,1309
0.2,0.8578199052132701,0.6678966789667896,0.7510373443983402,844,724,1329
0.3,0.8785900783289817,0.6208487084870848,0.7275675675675675,766,673,1407