threshold,precision,recall,fMeasure,allPositive,truePositive,perfectCompleteClusterNo
0.1,0.9258064516129032,0.794280442804428,0.8550148957298908,930,861,1243
0.2,0.9248366013071896,0.783210332103321,0.8481518481518481,918,849,1255
0.3,0.9403669724770642,0.7564575645756457,0.8384458077709611,872,820,1301