threshold,precision,recall,fMeasure,allPositive,truePositive,perfectCompleteClusterNo
0.1,0.9429778247096093,0.8238007380073801,0.879369768586903,947,893,1226
0.2,0.9404888416578109,0.816420664206642,0.8740740740740742,941,885,1232
0.3,0.9506966773847803,0.8182656826568265,0.8795240456122955,933,887,1240