threshold,precision,recall,fMeasure,allPositive,truePositive,perfectCompleteClusterNo
0.1,0.9362591431556949,0.8265682656826568,0.8780009799118079,957,896,1216
0.2,0.9484210526315789,0.8311808118081181,0.8859390363815142,950,901,1223
0.3,0.9501061571125266,0.8256457564575646,0.8835143139190523,942,895,1231