threshold,precision,recall,fMeasure,allPositive,truePositive,perfectCompleteClusterNo
0.1,0.94258872651357,0.8330258302583026,0.8844270323212536,958,903,1215
0.2,0.9453781512605042,0.8302583025830258,0.8840864440078586,952,900,1221
0.3,0.9522799575821845,0.8284132841328413,0.8860384805130734,943,898,1230