threshold,precision,recall,fMeasure,allPositive,truePositive,perfectCompleteClusterNo
0.1,0.929324894514768,0.8127306273062731,0.8671259842519685,948,881,1225
0.2,0.929324894514768,0.8127306273062731,0.8671259842519685,948,881,1225
0.3,0.928194297782471,0.8108856088560885,0.865583456425406,947,879,1226