threshold,precision,recall,fMeasure,allPositive,truePositive,perfectCompleteClusterNo
0.1,0.661498708010336,0.23616236162361623,0.3480625424881033,387,256,1786
0.2,0.7191011235955056,0.17712177121771217,0.2842339008142116,267,192,1906
0.3,0.7642276422764228,0.08671586715867159,0.15575807787903892,123,94,2050