threshold,precision,recall,fMeasure,allPositive,truePositive,perfectCompleteClusterNo
0.1,0.9334741288278775,0.8154981549815498,0.8705071393402265,947,884,1226
0.2,0.9406150583244963,0.8182656826568265,0.8751850024666994,943,887,1230
0.3,0.9498364231188658,0.8035055350553506,0.8705647176411794,917,871,1256