threshold,precision,recall,fMeasure,allPositive,truePositive,perfectCompleteClusterNo
0.1,0.7480719794344473,0.5369003690036901,0.6251342642320087,778,582,1395
0.2,0.7461340206185567,0.5341328413284133,0.6225806451612904,776,579,1397
0.3,0.7428940568475452,0.5304428044280443,0.618945102260495,774,575,1399