threshold,precision,recall,fMeasure,allPositive,truePositive,perfectCompleteClusterNo
0.1,0.9446185997910136,0.8339483394833949,0.8858402743753062,957,904,1216
0.2,0.9558823529411765,0.8394833948339483,0.893909626719057,952,910,1221
0.3,0.9576547231270358,0.8136531365313653,0.8798004987531172,921,882,1252