threshold,precision,recall,fMeasure,allPositive,truePositive,perfectCompleteClusterNo
0.1,0.9254054054054054,0.7896678966789668,0.852165256346441,925,856,1248
0.2,0.9449339207048458,0.7915129151291513,0.8614457831325303,908,858,1265
0.3,0.9543325526932084,0.7518450184501845,0.8410732714138286,854,815,1319