threshold,precision,recall,fMeasure,allPositive,truePositive,perfectCompleteClusterNo
0.1,0.9264069264069265,0.7896678966789668,0.8525896414342631,924,856,1249
0.2,0.9228260869565217,0.783210332103321,0.8473053892215568,920,849,1253
0.3,0.9316909294512878,0.7675276752767528,0.8416793120890238,893,832,1280