Datensatz,Methode,Precision,Recall,F-Measure
D-PM (title),EJ,0.057,0.148,0.083
D-PM (title),TF-IDF,0.378,0.736,0.500
D-PM (title),Soft-TFIDF,0.219,0.622,0.324
D-PM (title*),EJ,0.068,0.374,0.115
D-PM (title*),TF-IDF,0.378,0.736,0.500
D-PM (title*),Soft-TFIDF,0.209,0.574,0.307
D-PM (all),EJ,0.275,0.075,0.118
D-PM (all),TF-IDF,0.321,0.609,0.421
D-PM (all),Soft-TFIDF,0.187,0.318,0.236
D-GS (title),EJ,0.116,0.291,0.162
D-GS (title),TF-IDF,0.099,0.546,0.167
D-GS (title),Soft-TFIDF,0.097,0.479,0.161
D-GS (title*),EJ,0.122,0.322,0.177
D-GS (title*),TF-IDF,0.175,0.301,0.221
D-GS (title*),Soft-TFIDF,0.185,0.266,0.218
D-GS (all),EJ,0.352,0.213,0.265
D-GS (all),TF-IDF,0.498,0.257,0.339
D-GS (all),Soft-TFIDF,0.156,0.439,0.230